Machine Learning with the MicrosoftML Package
…
Let’s make some visualizations to examine the MNIST data and see what we can use for a classifier to classify the digits.

mnist_df <- rxDataStep(inData = mnist_xdf, outFile = NULL,
                       maxRowsByCols = nrow(mnist_xdf)*ncol(mnist_xdf)) %>% tbl_df

Let’s see the average for each digit:

mnist_df %>% 
  keep(is.numeric) %>% 
  rowMeans() %>% data.frame(intensity = .) %>% 
  tbl_df %>% 
  bind_cols(mnist_df) %T>% print -> mnist_df

## # A tibble: 70,000 x 787
##    intensity  Label    V2    V3    V4    V5    V6    V7    V8    V9   V10
##        <dbl> <fctr> <int> <int> <int> <int> <int> <int> <int> <int> <int>
##  1  35.10842      5     0     0     0     0     0     0     0     0     0
##  2  39.66199      0     0     0     0     0     0     0     0     0     0
##  3  24.79974      4     0     0     0     0     0     0     0     0     0
##  4  21.85587      1     0     0     0     0     0     0     0     0     0
##  5  29.60969      9     0     0     0     0     0     0     0     0     0
##  6  37.75638      2     0     0     0     0     0     0     0     0     0
##  7  22.50765      1     0     0     0     0     0     0     0     0     0
##  8  45.74872      3     0     0     0     0     0     0     0     0     0
##  9  13.86990      1     0     0     0     0     0     0     0     0     0
## 10  27.93878      4     0     0     0     0     0     0     0     0     0
## # ... with 69,990 more rows, and 776 more variables: V11 <int>, V12 <int>,
## #   V13 <int>, V14 <int>, V15 <int>, V16 <int>, V17 <int>, V18 <int>,
## #   V19 <int>, V20 <int>, V21 <int>, V22 <int>, V23 <int>, V24 <int>,
## #   V25 <int>, V26 <int>, V27 <int>, V28 <int>, V29 <int>, V30 <int>,
## #   V31 <int>, V32 <int>, V33 <int>, V34 <int>, V35 <int>, V36 <int>,
## #   V37 <int>, V38 <int>, V39 <int>, V40 <int>, V41 <int>, V42 <int>,
## #   V43 <int>, V44 <int>, V45 <int>, V46 <int>, V47 <int>, V48 <int>,
## #   V49 <int>, V50 <int>, V51 <int>, V52 <int>, V53 <int>, V54 <int>,
## #   V55 <int>, V56 <int>, V57 <int>, V58 <int>, V59 <int>, V60 <int>,
…
