Machine Learning with the MicrosoftML Package
…
housing

## # A tibble: 20,640 x 10
##    longitude latitude housing_median_age total_rooms total_bedrooms
##        <dbl>    <dbl>              <dbl>       <dbl>          <dbl>
##  1   -122.23    37.88                 41         880            129
##  2   -122.22    37.86                 21        7099           1106
##  3   -122.24    37.85                 52        1467            190
##  4   -122.25    37.85                 52        1274            235
##  5   -122.25    37.85                 52        1627            280
##  6   -122.25    37.85                 52         919            213
##  7   -122.25    37.84                 52        2535            489
##  8   -122.25    37.84                 52        3104            687
##  9   -122.26    37.84                 42        2555            665
## 10   -122.25    37.84                 52        3549            707
## # ... with 20,630 more rows, and 5 more variables: population <dbl>,
## #   households <dbl>, median_income <dbl>, median_house_value <dbl>,
## #   ocean_proximity <chr>
…
